
{
    "comment" : "This file is used to help set default values when using the dotnet CLI extension Amazon.ElasticBeanstalk.Tools. For more information run \"dotnet eb --help\" from the project root.",
    "profile" : "Root_User",
    "region"  : "us-west-2",
    "application" : "goWork",
    "environment" : "goWork-test",
    "iis-website" : "Default Web Site",
    "app-path"    : "/",
    "enable-xray" : false
}